{"type":2302,"data":{"_key":"water_to_boat","_rev":"_VJ5thHi---"}}
{"type":2302,"data":{"_key":"pub_to_train","_rev":"_VJ5uPb6---"}}
{"type":2302,"data":{"_key":"land_to_bicycle","_rev":"_VJ5uPb6--_"}}
{"type":2302,"data":{"_key":"private_to_car","_rev":"_VJ5uPb6--B"}}
{"type":2302,"data":{"_key":"pub_to_boat","_rev":"_VJ5uPb6--C"}}
{"type":2302,"data":{"_key":"fast_to_train","_rev":"_VJ5uPb6--E"}}
{"type":2302,"data":{"_key":"slow_to_boat","_rev":"_VJ5uPb6--F"}}
{"type":2302,"data":{"_key":"fast_to_car","_rev":"_VJ5uPb6--I"}}
{"type":2302,"data":{"_key":"pub_to_bus","_rev":"_VJ5uPb6--J"}}
{"type":2302,"data":{"_key":"pub_to_airplane","_rev":"_VJ5uPb6--K"}}
{"type":2302,"data":{"_key":"slow_to_bus","_rev":"_VJ5uPb6--M"}}
{"type":2302,"data":{"_key":"slow_to_bicycle","_rev":"_VJ5uPb6--N"}}
{"type":2302,"data":{"_key":"air_to_airplane","_rev":"_VJ5uPb6--P"}}
{"type":2302,"data":{"_key":"private_to_bicycle","_rev":"_VJ5uPb6--Q"}}
{"type":2302,"data":{"_key":"land_to_train","_rev":"_VJ5uPb6--R"}}
{"type":2302,"data":{"_key":"fast_to_airplane","_rev":"_VJ5uPb6--S"}}
{"type":2302,"data":{"_key":"land_to_bus","_rev":"_VJ5uPb6--T"}}
{"type":2302,"data":{"_key":"land_to_car","_rev":"_VJ5uPb6--U"}}
{"type":2300,"data":{"_id":"contents/airplane","_key":"airplane","_rev":"_VJ5yyrG---","contents":[{"content":"http://www.google.ch","label":"Target","type":"text/plain"},{"content":"Airplane","label":"Title","type":"text/plain"}],"name":"airplane"}}
{"type":2300,"data":{"_id":"contents/bicycle","_key":"bicycle","_rev":"_VJ5yyrG--_","contents":[{"content":"http://www.bing.com","label":"Target","type":"text/plain"},{"content":"Bycicle","label":"Title","type":"text/plain"}],"name":"bicycle"}}
{"type":2300,"data":{"_id":"contents/car","_key":"car","_rev":"_VJ5yyrG--B","contents":[{"content":"http://www.uberview.io","label":"Target","type":"text/plain"},{"content":"Uberview","label":"Title","type":"text/plain"}],"name":"car"}}
{"type":2300,"data":{"_id":"contents/boat","_key":"boat","_rev":"_VJ5yyrG--C","contents":[{"content":"http://laverna.cc","label":"Target","type":"text/plain"},{"content":"Boat","label":"Title","type":"text/plain"}],"name":"boat"}}
{"type":2300,"data":{"_id":"contents/bus","_key":"bus","_rev":"_VJ5yyrG--D","contents":[{"content":"http://www.abc.com","label":"Target","type":"text/plain"},{"content":"Bus","label":"Title","type":"text/plain"}],"name":"bus"}}
{"type":2300,"data":{"_id":"contents/train","_key":"train","_rev":"_VJ54b5O---","contents":[{"content":"http://www.nzz.ch","label":"Target","type":"text/plain"},{"content":"Train","label":"Title","type":"text/plain"}],"name":"train"}}
{"type":2300,"data":{"_id":"contents/train","_key":"train","_rev":"_VZq0x9u---","contents":[{"content":"http://www.nzz.ch","label":"Target","type":"text/plain"},{"content":"NZZ","label":"Title","type":"text/plain"}],"name":"train"}}
{"type":2300,"data":{"_id":"contents/bus","_key":"bus","_rev":"_VZq1Hcm---","contents":[{"content":"http://www.abc.com","label":"Target","type":"text/plain"},{"content":"abc","label":"Title","type":"text/plain"}],"name":"bus"}}
{"type":2302,"data":{"_key":"38a1e80e-479d-428c-be65-c234d135d222","_rev":"_VaIEdC----"}}
{"type":2302,"data":{"_key":"airplane","_rev":"_VaITfk2---"}}
{"type":2302,"data":{"_key":"boat","_rev":"_VaITfk2--_"}}
{"type":2302,"data":{"_key":"car","_rev":"_VaITfk2--A"}}
{"type":2302,"data":{"_key":"train","_rev":"_VaITfk2--B"}}
{"type":2302,"data":{"_key":"bus","_rev":"_VaITfk2--C"}}
{"type":2302,"data":{"_key":"bicycle","_rev":"_VaITfk2--D"}}
{"type":2300,"data":{"_id":"contents/b40ded98-59a3-43dc-8a89-1fb666af02b6","_key":"b40ded98-59a3-43dc-8a89-1fb666af02b6","_rev":"_VaIdFFK---","contents":[{"content":"http://mathworld.wolfram.com/RSAEncryption.html","label":"Target"},{"content":"rsa on wolfram","label":"Title","type":"text/plain"}],"name":"b40ded98-59a3-43dc-8a89-1fb666af02b6"}}
{"type":2300,"data":{"_id":"contents/6a2d20ed-daf5-4e5b-bebd-049e3ef7b454","_key":"6a2d20ed-daf5-4e5b-bebd-049e3ef7b454","_rev":"_VaTykoG---","contents":[{"content":"http://www.mathaware.org/mam/06/Kaliski.pdf","label":"Target"},{"content":"rsa math","label":"Title","type":"text/plain"},{"content":"rsa math","label":"Title","type":"text/plain"}],"name":"6a2d20ed-daf5-4e5b-bebd-049e3ef7b454"}}
{"type":2300,"data":{"_id":"contents/a55feac6-e1f1-4cc9-8b5b-ae2e12512826","_key":"a55feac6-e1f1-4cc9-8b5b-ae2e12512826","_rev":"_VaT2IR----","contents":[{"content":"https://hodgkins.io/ultimate-powershell-prompt-and-git-setup","label":"Target"},{"content":"powershell setup","label":"Title","type":"text/plain"}],"name":"a55feac6-e1f1-4cc9-8b5b-ae2e12512826"}}
{"type":2300,"data":{"_id":"contents/81b8422a-d527-444c-be49-3b7f191662c6","_key":"81b8422a-d527-444c-be49-3b7f191662c6","_rev":"_VaT5H4a---","contents":[{"content":"https://www.johannes-bauer.com/compsci/ecc/","label":"Target"},{"content":"eliptic curve explanation","label":"Title","type":"text/plain"}],"name":"81b8422a-d527-444c-be49-3b7f191662c6"}}
{"type":2300,"data":{"_id":"contents/d9ad22de-8b50-4a25-9473-5caede335d7e","_key":"d9ad22de-8b50-4a25-9473-5caede335d7e","_rev":"_VaUYdjK---","contents":[{"content":"https://hexo.io","label":"Target"},{"content":"hexo","label":"Title","type":"text/plain"}],"name":"d9ad22de-8b50-4a25-9473-5caede335d7e"}}
{"type":2300,"data":{"_id":"contents/2074d1de-9f64-4bfb-a1bb-51bd63e164b7","_key":"2074d1de-9f64-4bfb-a1bb-51bd63e164b7","_rev":"_VabPQnG---","contents":[{"content":"https://en.wikipedia.org/wiki/Digital_Signature_Algorithm","label":"Target"},{"content":"signature","label":"Title","type":"text/plain"}],"name":"2074d1de-9f64-4bfb-a1bb-51bd63e164b7"}}
{"type":2300,"data":{"_id":"contents/a0eeb1c8-e7a0-43b4-a676-b84af62c752f","_key":"a0eeb1c8-e7a0-43b4-a676-b84af62c752f","_rev":"_VcPvmc----","contents":[{"content":"http://www.google.ch","label":"Target"},{"content":"Testnode","label":"Title","type":"text/plain"}],"name":"a0eeb1c8-e7a0-43b4-a676-b84af62c752f"}}
{"type":2300,"data":{"_id":"contents/2074d1de-9f64-4bfb-a1bb-51bd63e164b7","_key":"2074d1de-9f64-4bfb-a1bb-51bd63e164b7","_rev":"_VcYZjoe---","contents":[{"content":"https://en.wikipedia.org/wiki/Digital_Signature_Algorithm","label":"Target"},{"content":"signature","label":"Title","type":"text/plain"}],"name":"2074d1de-9f64-4bfb-a1bb-51bd63e164b7"}}
{"type":2300,"data":{"_id":"contents/001e4ef8-ffd9-447c-9306-1f9d60d76830","_key":"001e4ef8-ffd9-447c-9306-1f9d60d76830","_rev":"_Vct-yw6---","contents":[{"content":"https://www.getdroidtips.com/official-unofficial-lineage-os-14-1-device-list/","label":"Target"},{"content":"lineage unofficial","label":"Title","type":"text/plain"}],"name":"001e4ef8-ffd9-447c-9306-1f9d60d76830"}}
{"type":2300,"data":{"_id":"contents/756a3e1a-44ab-4f30-8a9c-a90557ea35b9","_key":"756a3e1a-44ab-4f30-8a9c-a90557ea35b9","_rev":"_VctDcQy---","contents":[{"content":"http://www.webling.ch","label":"Target"},{"content":"Mitgliederverwaltung","label":"Title","type":"text/plain"}],"name":"756a3e1a-44ab-4f30-8a9c-a90557ea35b9"}}
{"type":2300,"data":{"_id":"contents/68defac2-cd9a-473d-a4fa-d75afbbd3f7c","_key":"68defac2-cd9a-473d-a4fa-d75afbbd3f7c","_rev":"_VctE2-u---","contents":[{"content":" https://storagemadeeasy.com/","label":"Target"},{"content":"storage made easy","label":"Title","type":"text/plain"}],"name":"68defac2-cd9a-473d-a4fa-d75afbbd3f7c"}}
{"type":2300,"data":{"_id":"contents/b45a8c03-5131-4839-9778-d19577f7847e","_key":"b45a8c03-5131-4839-9778-d19577f7847e","_rev":"_Vc5XSkC---","contents":[{"content":"http://www.soglio-produkte.ch/product_info.php?products_id=46","label":"Target"},{"content":"Salbe","label":"Title","type":"text/plain"}],"name":"b45a8c03-5131-4839-9778-d19577f7847e"}}
{"type":2300,"data":{"_id":"contents/20d4f758-24cc-4836-b035-bfb6067e5242","_key":"20d4f758-24cc-4836-b035-bfb6067e5242","_rev":"_Vc5YmVW---","contents":[{"content":"http://sportland.de/","label":"Target"},{"content":"Bestickte Guertel","label":"Title","type":"text/plain"}],"name":"20d4f758-24cc-4836-b035-bfb6067e5242"}}
{"type":2300,"data":{"_id":"contents/7c3f2797-2779-4fa2-8d98-4b46ed81a4e2","_key":"7c3f2797-2779-4fa2-8d98-4b46ed81a4e2","_rev":"_Vc5Z206---","contents":[{"content":"https://www.youtube.com/watch?v=Yz1UhtM1q1o","label":"Target"},{"content":"Kumite Uebung Nishimura","label":"Title","type":"text/plain"}],"name":"7c3f2797-2779-4fa2-8d98-4b46ed81a4e2"}}
{"type":2300,"data":{"_id":"contents/392b3bf4-c78c-4ae1-9e3a-5d03db1b5612","_key":"392b3bf4-c78c-4ae1-9e3a-5d03db1b5612","_rev":"_Vc5az6----","contents":[{"content":"http://flight-manual.atom.io/","label":"Target"},{"content":"Atom (docs)","label":"Title","type":"text/plain"}],"name":"392b3bf4-c78c-4ae1-9e3a-5d03db1b5612"}}
{"type":2300,"data":{"_id":"contents/1eed5af0-6f84-43c1-809a-cd1374ec7af4","_key":"1eed5af0-6f84-43c1-809a-cd1374ec7af4","_rev":"_Vc5cfWa---","contents":[{"content":"http://www.braveclojure.com/basic-emacs/","label":"Target"},{"content":"emacs primer","label":"Title","type":"text/plain"}],"name":"1eed5af0-6f84-43c1-809a-cd1374ec7af4"}}
{"type":2300,"data":{"_id":"contents/8f7f33d8-57d9-461b-bfca-5f4249a54aba","_key":"8f7f33d8-57d9-461b-bfca-5f4249a54aba","_rev":"_Vc73_JW---","contents":[{"content":"https://stdlib.com","label":"Target"},{"content":"web functions stdlib","label":"Title","type":"text/plain"}],"name":"8f7f33d8-57d9-461b-bfca-5f4249a54aba"}}
{"type":2300,"data":{"_id":"contents/f138fb5f-1976-462a-bad8-77783122cb3a","_key":"f138fb5f-1976-462a-bad8-77783122cb3a","_rev":"_VdBClKW---","contents":[{"content":"http://ionide.io/","label":"Target"},{"content":"Ionide","label":"Title","type":"text/plain"}],"name":"f138fb5f-1976-462a-bad8-77783122cb3a"}}
{"type":2300,"data":{"_id":"contents/fa473d61-45a6-4838-b89a-af0575d766a6","_key":"fa473d61-45a6-4838-b89a-af0575d766a6","_rev":"_Veg5XF6---","contents":[{"content":"https://www.cnet.com/news/10-new-keyboard-shortcuts-in-windows-10/","label":"Target"},{"content":"win10 shortcuts und virtual desktop","label":"Title","type":"text/plain"}],"name":"fa473d61-45a6-4838-b89a-af0575d766a6"}}
